BmF# E D F#
Bm F#

Bm               F#                  E
  Quiero contaros la historia de una tremenda muchacha.
                    D          F#       Bm
largas piernas, bellas nalgas y unas tetas que acompañan
               F#             		     E
ella nunca diria eso, pero siempre se marchaba
                 D         F#           G   G#   A
tras enamorar primero a todo aquel que la mirara
                Bm      F#
y es que todos la miraban.

Bm                   F#                           E
 Como lo parte la flaca dicen todos en la tasca
                    D          F#       Bm
y cuando cae la noche, saben bien donde encontrarla.
               F#                E
Y besar y besar  y pagar y pagar
                 D         F#           G   G#   A
cada una de las copas que ella dice que se toma
 		 Bm      F#
para quitarse la ropa.

G                 A                 Bm
 Queda conmigo esta noche y te hago lo que quieras
            E                       G
si te dejas neena te hago todo lo que quieras
                  A                 Bm
Queda conmigo esta noche y te hago lo que quieras
            E                       G   G#  A
si te dejas yo nena te hago lo que quieras
                Bm    G
te hago todo lo que quieras.

Bm                 F#                        E
  No ella no, no paseaba, me robaba el corazón
                 D            F#                Bm
con sus pasos por el parque lo hace a plena luz del dia.
                F#                      E
y la veo caminar y sé que la necesito
                     D         F#          G  G#  A
porque Dios estoy loco por echarle ya un pinchito
                Bm    F#
Solo en sueños lo consigo.

G                 A                 Bm
 Queda conmigo esta noche y te hago lo que quieras
            E                       G
si te dejas neena te hago todo lo que quieras
                  A                 Bm
Queda conmigo esta noche y te hago lo que quieras
            E                       G     A
si te dejas yo nena te hago lo que quieras
                Bm    E
te hago todo lo que quieras.
                G    A
te hago todo lo que quieras.
                Bm    E
te hago todo lo que quieras.
                G    A
te hago todo lo que quieras.
Bm    E                 G    A
     te hago todo lo que quieras.
Bm E                 G    A
     te hago todo lo que quieras.
Bm E                 G    A
     te hago todo lo que quieras.
Bm E                 Bm     E
     te hago todo lo que quieras.
                Bm    E
te hago todo lo que quieras.
                Bm    E
te hago todo lo que quieras.
                Bm    E
te hago todo lo que quieras.
                Bm
te hago todo lo que quieras.
